{
	"timestamp": "2023-04-03T16:45:04",
	"globalConfig": "C3",
	"parentLogDirPath": "/home/talbouy/EXPE_MBRB/logs",
	"processes": [
		{
			"procId": 1,
			"addr": "paravance-18.rennes.grid5000.fr",
			"port": 2001
		},
		{
			"procId": 21,
			"addr": "paravance-18.rennes.grid5000.fr",
			"port": 2002
		},
		{
			"procId": 41,
			"addr": "paravance-18.rennes.grid5000.fr",
			"port": 2003
		},
		{
			"procId": 61,
			"addr": "paravance-18.rennes.grid5000.fr",
			"port": 2004
		},
		{
			"procId": 81,
			"addr": "paravance-18.rennes.grid5000.fr",
			"port": 2005
		},
		{
			"procId": 2,
			"addr": "paravance-19.rennes.grid5000.fr",
			"port": 2001
		},
		{
			"procId": 22,
			"addr": "paravance-19.rennes.grid5000.fr",
			"port": 2002
		},
		{
			"procId": 42,
			"addr": "paravance-19.rennes.grid5000.fr",
			"port": 2003
		},
		{
			"procId": 62,
			"addr": "paravance-19.rennes.grid5000.fr",
			"port": 2004
		},
		{
			"procId": 82,
			"addr": "paravance-19.rennes.grid5000.fr",
			"port": 2005
		},
		{
			"procId": 3,
			"addr": "paravance-2.rennes.grid5000.fr",
			"port": 2001
		},
		{
			"procId": 23,
			"addr": "paravance-2.rennes.grid5000.fr",
			"port": 2002
		},
		{
			"procId": 43,
			"addr": "paravance-2.rennes.grid5000.fr",
			"port": 2003
		},
		{
			"procId": 63,
			"addr": "paravance-2.rennes.grid5000.fr",
			"port": 2004
		},
		{
			"procId": 83,
			"addr": "paravance-2.rennes.grid5000.fr",
			"port": 2005
		},
		{
			"procId": 4,
			"addr": "paravance-21.rennes.grid5000.fr",
			"port": 2001
		},
		{
			"procId": 24,
			"addr": "paravance-21.rennes.grid5000.fr",
			"port": 2002
		},
		{
			"procId": 44,
			"addr": "paravance-21.rennes.grid5000.fr",
			"port": 2003
		},
		{
			"procId": 64,
			"addr": "paravance-21.rennes.grid5000.fr",
			"port": 2004
		},
		{
			"procId": 84,
			"addr": "paravance-21.rennes.grid5000.fr",
			"port": 2005
		},
		{
			"procId": 5,
			"addr": "paravance-58.rennes.grid5000.fr",
			"port": 2001
		},
		{
			"procId": 25,
			"addr": "paravance-58.rennes.grid5000.fr",
			"port": 2002
		},
		{
			"procId": 45,
			"addr": "paravance-58.rennes.grid5000.fr",
			"port": 2003
		},
		{
			"procId": 65,
			"addr": "paravance-58.rennes.grid5000.fr",
			"port": 2004
		},
		{
			"procId": 85,
			"addr": "paravance-58.rennes.grid5000.fr",
			"port": 2005
		},
		{
			"procId": 6,
			"addr": "paravance-6.rennes.grid5000.fr",
			"port": 2001
		},
		{
			"procId": 26,
			"addr": "paravance-6.rennes.grid5000.fr",
			"port": 2002
		},
		{
			"procId": 46,
			"addr": "paravance-6.rennes.grid5000.fr",
			"port": 2003
		},
		{
			"procId": 66,
			"addr": "paravance-6.rennes.grid5000.fr",
			"port": 2004
		},
		{
			"procId": 86,
			"addr": "paravance-6.rennes.grid5000.fr",
			"port": 2005
		},
		{
			"procId": 7,
			"addr": "paravance-60.rennes.grid5000.fr",
			"port": 2001
		},
		{
			"procId": 27,
			"addr": "paravance-60.rennes.grid5000.fr",
			"port": 2002
		},
		{
			"procId": 47,
			"addr": "paravance-60.rennes.grid5000.fr",
			"port": 2003
		},
		{
			"procId": 67,
			"addr": "paravance-60.rennes.grid5000.fr",
			"port": 2004
		},
		{
			"procId": 87,
			"addr": "paravance-60.rennes.grid5000.fr",
			"port": 2005
		},
		{
			"procId": 8,
			"addr": "paravance-61.rennes.grid5000.fr",
			"port": 2001
		},
		{
			"procId": 28,
			"addr": "paravance-61.rennes.grid5000.fr",
			"port": 2002
		},
		{
			"procId": 48,
			"addr": "paravance-61.rennes.grid5000.fr",
			"port": 2003
		},
		{
			"procId": 68,
			"addr": "paravance-61.rennes.grid5000.fr",
			"port": 2004
		},
		{
			"procId": 88,
			"addr": "paravance-61.rennes.grid5000.fr",
			"port": 2005
		},
		{
			"procId": 9,
			"addr": "paravance-62.rennes.grid5000.fr",
			"port": 2001
		},
		{
			"procId": 29,
			"addr": "paravance-62.rennes.grid5000.fr",
			"port": 2002
		},
		{
			"procId": 49,
			"addr": "paravance-62.rennes.grid5000.fr",
			"port": 2003
		},
		{
			"procId": 69,
			"addr": "paravance-62.rennes.grid5000.fr",
			"port": 2004
		},
		{
			"procId": 89,
			"addr": "paravance-62.rennes.grid5000.fr",
			"port": 2005
		},
		{
			"procId": 10,
			"addr": "paravance-63.rennes.grid5000.fr",
			"port": 2001
		},
		{
			"procId": 30,
			"addr": "paravance-63.rennes.grid5000.fr",
			"port": 2002
		},
		{
			"procId": 50,
			"addr": "paravance-63.rennes.grid5000.fr",
			"port": 2003
		},
		{
			"procId": 70,
			"addr": "paravance-63.rennes.grid5000.fr",
			"port": 2004
		},
		{
			"procId": 90,
			"addr": "paravance-63.rennes.grid5000.fr",
			"port": 2005
		},
		{
			"procId": 11,
			"addr": "paravance-64.rennes.grid5000.fr",
			"port": 2001
		},
		{
			"procId": 31,
			"addr": "paravance-64.rennes.grid5000.fr",
			"port": 2002
		},
		{
			"procId": 51,
			"addr": "paravance-64.rennes.grid5000.fr",
			"port": 2003
		},
		{
			"procId": 71,
			"addr": "paravance-64.rennes.grid5000.fr",
			"port": 2004
		},
		{
			"procId": 91,
			"addr": "paravance-64.rennes.grid5000.fr",
			"port": 2005
		},
		{
			"procId": 12,
			"addr": "paravance-65.rennes.grid5000.fr",
			"port": 2001
		},
		{
			"procId": 32,
			"addr": "paravance-65.rennes.grid5000.fr",
			"port": 2002
		},
		{
			"procId": 52,
			"addr": "paravance-65.rennes.grid5000.fr",
			"port": 2003
		},
		{
			"procId": 72,
			"addr": "paravance-65.rennes.grid5000.fr",
			"port": 2004
		},
		{
			"procId": 92,
			"addr": "paravance-65.rennes.grid5000.fr",
			"port": 2005
		},
		{
			"procId": 13,
			"addr": "paravance-66.rennes.grid5000.fr",
			"port": 2001
		},
		{
			"procId": 33,
			"addr": "paravance-66.rennes.grid5000.fr",
			"port": 2002
		},
		{
			"procId": 53,
			"addr": "paravance-66.rennes.grid5000.fr",
			"port": 2003
		},
		{
			"procId": 73,
			"addr": "paravance-66.rennes.grid5000.fr",
			"port": 2004
		},
		{
			"procId": 93,
			"addr": "paravance-66.rennes.grid5000.fr",
			"port": 2005
		},
		{
			"procId": 14,
			"addr": "paravance-67.rennes.grid5000.fr",
			"port": 2001
		},
		{
			"procId": 34,
			"addr": "paravance-67.rennes.grid5000.fr",
			"port": 2002
		},
		{
			"procId": 54,
			"addr": "paravance-67.rennes.grid5000.fr",
			"port": 2003
		},
		{
			"procId": 74,
			"addr": "paravance-67.rennes.grid5000.fr",
			"port": 2004
		},
		{
			"procId": 94,
			"addr": "paravance-67.rennes.grid5000.fr",
			"port": 2005
		},
		{
			"procId": 15,
			"addr": "paravance-68.rennes.grid5000.fr",
			"port": 2001
		},
		{
			"procId": 35,
			"addr": "paravance-68.rennes.grid5000.fr",
			"port": 2002
		},
		{
			"procId": 55,
			"addr": "paravance-68.rennes.grid5000.fr",
			"port": 2003
		},
		{
			"procId": 75,
			"addr": "paravance-68.rennes.grid5000.fr",
			"port": 2004
		},
		{
			"procId": 95,
			"addr": "paravance-68.rennes.grid5000.fr",
			"port": 2005
		},
		{
			"procId": 16,
			"addr": "paravance-69.rennes.grid5000.fr",
			"port": 2001
		},
		{
			"procId": 36,
			"addr": "paravance-69.rennes.grid5000.fr",
			"port": 2002
		},
		{
			"procId": 56,
			"addr": "paravance-69.rennes.grid5000.fr",
			"port": 2003
		},
		{
			"procId": 76,
			"addr": "paravance-69.rennes.grid5000.fr",
			"port": 2004
		},
		{
			"procId": 96,
			"addr": "paravance-69.rennes.grid5000.fr",
			"port": 2005
		},
		{
			"procId": 17,
			"addr": "paravance-7.rennes.grid5000.fr",
			"port": 2001
		},
		{
			"procId": 37,
			"addr": "paravance-7.rennes.grid5000.fr",
			"port": 2002
		},
		{
			"procId": 57,
			"addr": "paravance-7.rennes.grid5000.fr",
			"port": 2003
		},
		{
			"procId": 77,
			"addr": "paravance-7.rennes.grid5000.fr",
			"port": 2004
		},
		{
			"procId": 97,
			"addr": "paravance-7.rennes.grid5000.fr",
			"port": 2005
		},
		{
			"procId": 18,
			"addr": "paravance-70.rennes.grid5000.fr",
			"port": 2001
		},
		{
			"procId": 38,
			"addr": "paravance-70.rennes.grid5000.fr",
			"port": 2002
		},
		{
			"procId": 58,
			"addr": "paravance-70.rennes.grid5000.fr",
			"port": 2003
		},
		{
			"procId": 78,
			"addr": "paravance-70.rennes.grid5000.fr",
			"port": 2004
		},
		{
			"procId": 98,
			"addr": "paravance-70.rennes.grid5000.fr",
			"port": 2005
		},
		{
			"procId": 19,
			"addr": "paravance-71.rennes.grid5000.fr",
			"port": 2001
		},
		{
			"procId": 39,
			"addr": "paravance-71.rennes.grid5000.fr",
			"port": 2002
		},
		{
			"procId": 59,
			"addr": "paravance-71.rennes.grid5000.fr",
			"port": 2003
		},
		{
			"procId": 79,
			"addr": "paravance-71.rennes.grid5000.fr",
			"port": 2004
		},
		{
			"procId": 99,
			"addr": "paravance-71.rennes.grid5000.fr",
			"port": 2005
		},
		{
			"procId": 20,
			"addr": "paravance-72.rennes.grid5000.fr",
			"port": 2001
		},
		{
			"procId": 40,
			"addr": "paravance-72.rennes.grid5000.fr",
			"port": 2002
		},
		{
			"procId": 60,
			"addr": "paravance-72.rennes.grid5000.fr",
			"port": 2003
		},
		{
			"procId": 80,
			"addr": "paravance-72.rennes.grid5000.fr",
			"port": 2004
		},
		{
			"procId": 100,
			"addr": "paravance-72.rennes.grid5000.fr",
			"port": 2005
		}
	]
}