{
	"timestamp": "2001-01-01T00:00:00",
	"globalConfig": "C1",
	"parentLogDirPath": "expe/logs",
	"processes": [
		{ "procId": 1, "addr": "localhost", "port": 8081 },
		{ "procId": 2, "addr": "localhost", "port": 8082 },
		{ "procId": 3, "addr": "localhost", "port": 8083 },
		{ "procId": 4, "addr": "localhost", "port": 8084 },
		{ "procId": 5, "addr": "localhost", "port": 8085 },
		{ "procId": 6, "addr": "localhost", "port": 8086 },
		{ "procId": 7, "addr": "localhost", "port": 8087 },
		{ "procId": 8, "addr": "localhost", "port": 8088 },
		{ "procId": 9, "addr": "localhost", "port": 8089 },
		{ "procId": 10, "addr": "localhost", "port": 8090 }
	]
}